(DevName,SN,channel,a,b,RssOffset)= cam011 A0000000197 0 -0.080663 5.494670 -49
(DevName,SN,channel,a,b,RssOffset)= cam011 A0000000197 2 -0.080663 5.494670 -49
(DevName,SN,channel,a,b,RssOffset)= cam011 A0000000197 1 -0.080663 5.494670 -49
