(DevName,SN,channel,a,b,RssOffset)= cam010 A0000001167 0 -0.080663 5.494670 -49
(DevName,SN,channel,a,b,RssOffset)= cam010 A0000001167 2 -0.080663 5.494670 -49
(DevName,SN,channel,a,b,RssOffset)= cam010 A0000001167 1 -0.080663 5.494670 -49
