(DevName,SN,channel,a,b,RssOffset)= cam019 a0000000349 0 -0.074120 4.839520 -47
(DevName,SN,channel,a,b,RssOffset)= cam019 a0000000349 2 -0.074120 4.839520 -47
(DevName,SN,channel,a,b,RssOffset)= cam019 a0000000349 1 -0.074120 4.839520 -47
