(DevName,SN,channel,a,b,RssOffset)= cam005 A0000000181 0 -0.076502 4.897080 -47
(DevName,SN,channel,a,b,RssOffset)= cam005 A0000000181 2 -0.076502 4.897080 -47
(DevName,SN,channel,a,b,RssOffset)= cam005 A0000000181 1 -0.076502 4.897080 -47
