(DevName,SN,channel,a,b,RssOffset)= cam002 A0000000190 0 -0.135362 2.881950 -47
(DevName,SN,channel,a,b,RssOffset)= cam002 A0000000190 2 -0.135362 2.881950 -47
(DevName,SN,channel,a,b,RssOffset)= cam002 A0000000190 1 -0.135362 2.881950 -47
