(DevName,SN,channel,a,b,RssOffset)= cam015 A0000000351 0 -0.110756 3.628270 -47
(DevName,SN,channel,a,b,RssOffset)= cam015 A0000000351 2 -0.110756 3.628270 -47
(DevName,SN,channel,a,b,RssOffset)= cam015 A0000000351 1 -0.110756 3.628270 -47
