(DevName,SN,channel,a,b,RssOffset)= cam007 A0000000189 0 -0.101638 3.871170 -47
(DevName,SN,channel,a,b,RssOffset)= cam007 A0000000189 2 -0.101638 3.871170 -47
(DevName,SN,channel,a,b,RssOffset)= cam007 A0000000189 1 -0.101638 3.871170 -47
