(DevName,SN,channel,a,b,RssOffset)= omni006 A0000000071 0 -0.132368 4.408484 -49
(DevName,SN,channel,a,b,RssOffset)= omni006 A0000000071 1 -0.132368 4.408484 -49
(DevName,SN,channel,a,b,RssOffset)= omni006 A0000000071 2 -0.132368 4.408484 -49
