(DevName,SN,channel,a,b,RssOffset)= cam011 A0000000244 0 -0.102913 4.818887 -49
(DevName,SN,channel,a,b,RssOffset)= cam011 A0000000244 1 -0.102913 4.818887 -49
(DevName,SN,channel,a,b,RssOffset)= cam011 A0000000244 2 -0.102913 4.818887 -49
