(DevName,SN,channel,a,b,RssOffset)= cam029 A0000000201 0 -0.128322 4.341902 -49
(DevName,SN,channel,a,b,RssOffset)= cam029 A0000000201 1 -0.128322 4.341902 -49
(DevName,SN,channel,a,b,RssOffset)= cam029 A0000000201 2 -0.128322 4.341902 -49
