(DevName,SN,channel,a,b,RssOffset)= cam010 A0000000009 0 -0.130692 5.230503 -55
(DevName,SN,channel,a,b,RssOffset)= cam010 A0000000009 0 -0.120611 4.658692 -49
(DevName,SN,channel,a,b,RssOffset)= cam010 A0000000009 1 -0.120611 4.658692 -49
(DevName,SN,channel,a,b,RssOffset)= cam010 A0000000009 2 -0.120611 4.658692 -49
