(DevName,SN,channel,a,b,RssOffset)= cam018 A0000000250 0 -0.176999 3.759604 -55
(DevName,SN,channel,a,b,RssOffset)= cam018 A0000000250 0 -0.169470 2.848155 -49
(DevName,SN,channel,a,b,RssOffset)= cam018 A0000000250 1 -0.169470 2.848155 -49
(DevName,SN,channel,a,b,RssOffset)= cam018 A0000000250 2 -0.169470 2.848155 -49
