(DevName,SN,channel,a,b,RssOffset)= cam007 A0000000198 0 -0.119125 5.354235 -55
(DevName,SN,channel,a,b,RssOffset)= cam007 A0000000198 0 -0.119709 4.609158 -49
(DevName,SN,channel,a,b,RssOffset)= cam007 A0000000198 1 -0.119709 4.609158 -49
(DevName,SN,channel,a,b,RssOffset)= cam007 A0000000198 2 -0.119709 4.609158 -49
