(DevName,SN,channel,a,b,RssOffset)= cam006 A0000000346 0 -0.099718 5.606912 -55
(DevName,SN,channel,a,b,RssOffset)= cam006 A0000000346 0 -0.103838 4.943561 -49
(DevName,SN,channel,a,b,RssOffset)= cam006 A0000000346 1 -0.103838 4.943561 -49
(DevName,SN,channel,a,b,RssOffset)= cam006 A0000000346 2 -0.103838 4.943561 -49
