(OS_SN,channel,a,b,RssOffset)= cam005 A0000000062 0 -0.116038 1.869539 -33
(OS_SN,channel,a,b,RssOffset)= cam005 A0000000062 1 -0.116038 1.869539 -33
(OS_SN,channel,a,b,RssOffset)= cam005 A0000000062 1 -0.116038 1.869539 -33
(OS_SN,channel,a,b,RssOffset)= cam005 A0000000062 2 -0.116038 1.869539 -33
(OS_SN,channel,a,b,RssOffset)= cam005 A0000000062 2 -0.116038 1.869539 -33
