(OS_SN,channel,a,b,RssOffset)= cam014 A0000000049 0 -0.113384 1.882767 -33
(OS_SN,channel,a,b,RssOffset)= cam014 A0000000049 1 -0.113384 1.882767 -33
(OS_SN,channel,a,b,RssOffset)= cam014 A0000000049 1 -0.113384 1.882767 -33
(OS_SN,channel,a,b,RssOffset)= cam014 A0000000049 2 -0.113384 1.882767 -33
(OS_SN,channel,a,b,RssOffset)= cam014 A0000000049 2 -0.113384 1.882767 -33
