(OS_SN,channel,a,b,RssOffset)= cam008 A0000000102 0 -0.107149 1.861875 -33
(OS_SN,channel,a,b,RssOffset)= cam008 A0000000102 1 -0.107149 1.861875 -33
(OS_SN,channel,a,b,RssOffset)= cam008 A0000000102 1 -0.107149 1.861875 -33
(OS_SN,channel,a,b,RssOffset)= cam008 A0000000102 2 -0.107149 1.861875 -33
(OS_SN,channel,a,b,RssOffset)= cam008 A0000000102 2 -0.107149 1.861875 -33
