31.72 30.98 12.10 -0.07
30.06 29.64 13.92 -0.06
29.88 30.32 14.54 0.00
28.91 30.97 13.09 -0.07
32.05 31.83 14.05 0.12
29.05 30.87 14.49 0.06
29.86 28.48 12.17 0.03
32.07 31.77 12.39 0.11
28.80 31.16 12.74 -0.15
31.10 29.62 14.12 0.05
27.51 29.98 14.34 -0.08
29.13 31.41 10.96 0.02
28.69 31.78 14.02 -0.02
27.90 29.32 12.54 0.13
28.05 30.19 13.53 0.01
31.57 30.15 14.82 0.03
30.44 29.79 12.98 -0.03
30.38 29.20 10.95 -0.09
30.56 30.60 12.38 -0.12
31.29 31.43 14.62 0.10
31.99 31.61 12.70 -0.03
31.03 29.15 14.06 0.10
31.98 30.34 14.75 0.02
29.75 30.61 14.98 0.13
31.47 28.41 13.06 0.00
30.65 31.31 11.22 0.07
28.09 28.94 13.97 -0.05
31.58 28.48 10.73 0.06
27.73 30.28 14.55 0.01
30.90 28.20 13.17 0.03
30.38 29.59 11.85 0.14
27.68 28.18 14.81 -0.09
28.12 28.90 14.00 0.13
27.61 29.72 10.51 -0.07
28.60 30.56 11.75 -0.10
30.02 28.25 10.50 0.15
28.50 29.46 13.66 0.10
32.09 28.74 13.36 0.14
27.79 30.67 14.23 -0.05
28.75 30.37 12.21 -0.10
29.86 29.66 12.85 0.00
29.06 29.46 14.19 -0.07
30.30 28.15 13.71 -0.05
27.73 29.17 11.20 0.14
29.26 29.19 11.80 0.13
30.67 30.46 13.58 -0.03
29.57 30.57 10.01 -0.09
29.17 29.01 13.19 -0.04
31.88 30.26 12.07 -0.03
31.01 29.69 13.31 -0.14
