(DevName,SN,channel,a,b,RssOffset)= cam008 A0000000132 0 -0.091855 4.478818 -48
(DevName,SN,channel,a,b,RssOffset)= cam008 A0000000132 0 -0.089791 4.576055 -48
(DevName,SN,channel,a,b,RssOffset)= cam008 A0000000132 0 -0.084998 4.727479 -48
(DevName,SN,channel,a,b,RssOffset)= cam008 A0000000132 0 -0.089600 5.050667 -54
(DevName,SN,channel,a,b,RssOffset)= cam008 A0000000132 1 -0.089600 5.050667 -54
(DevName,SN,channel,a,b,RssOffset)= cam008 A0000000132 2 -0.089600 5.050667 -54
