(DevName,SN,channel,a,b,RssOffset)= fac008 A0000000135 0 -0.082413 5.117935 -48
(DevName,SN,channel,a,b,RssOffset)= fac008 A0000000135 0 -0.084355 4.979891 -48
(DevName,SN,channel,a,b,RssOffset)= fac008 A0000000135 0 -0.083785 5.007302 -48
(DevName,SN,channel,a,b,RssOffset)= fac008 A0000000135 0 -0.083366 5.500218 -54
(DevName,SN,channel,a,b,RssOffset)= fac008 A0000000135 1 -0.083366 5.500218 -54
(DevName,SN,channel,a,b,RssOffset)= fac008 A0000000135 2 -0.083366 5.500218 -54
