(DevName,SN,channel,a,b,RssOffset)= fac007 A0000000068 0 -0.106151 4.311089 -48
(DevName,SN,channel,a,b,RssOffset)= fac007 A0000000068 0 -0.108870 4.264518 -48
(DevName,SN,channel,a,b,RssOffset)= fac007 A0000000068 0 -0.103675 4.418135 -48
(DevName,SN,channel,a,b,RssOffset)= fac007 A0000000068 0 -0.103237 5.035543 -54
(DevName,SN,channel,a,b,RssOffset)= fac007 A0000000068 1 -0.103237 5.035543 -54
(DevName,SN,channel,a,b,RssOffset)= fac007 A0000000068 2 -0.103237 5.035543 -54
