(DevName,SN,channel,a,b,RssOffset)= fac002 A0000000075 0 -0.081447 4.678863 -48
(DevName,SN,channel,a,b,RssOffset)= fac002 A0000000075 0 -0.084120 4.641849 -48
(DevName,SN,channel,a,b,RssOffset)= fac002 A0000000075 0 -0.071597 4.968065 -48
(DevName,SN,channel,a,b,RssOffset)= fac002 A0000000075 0 -0.075037 5.302515 -54
(DevName,SN,channel,a,b,RssOffset)= fac002 A0000000075 1 -0.075037 5.302515 -54
(DevName,SN,channel,a,b,RssOffset)= fac002 A0000000075 2 -0.075037 5.302515 -54
