(DevName,SN,channel,a,b,RssOffset)= cam001 A0000000130 0 -0.117975 3.885307 -48
(DevName,SN,channel,a,b,RssOffset)= cam001 A0000000130 0 -0.122995 3.706504 -48
(DevName,SN,channel,a,b,RssOffset)= cam001 A0000000130 0 -0.120655 3.827787 -48
(DevName,SN,channel,a,b,RssOffset)= cam001 A0000000130 0 -0.112722 4.695140 -54
(DevName,SN,channel,a,b,RssOffset)= cam001 A0000000130 1 -0.112722 4.695140 -54
(DevName,SN,channel,a,b,RssOffset)= cam001 A0000000130 2 -0.112722 4.695140 -54
