(DevName,SN,channel,a,b,RssOffset)= cam023 A0000000096 0 -0.093475 4.545294 -48
(DevName,SN,channel,a,b,RssOffset)= cam023 A0000000096 0 -0.097036 4.440213 -48
(DevName,SN,channel,a,b,RssOffset)= cam023 A0000000096 0 -0.093841 4.509300 -48
(DevName,SN,channel,a,b,RssOffset)= cam023 A0000000096 0 -0.092484 5.096797 -54
(DevName,SN,channel,a,b,RssOffset)= cam023 A0000000096 1 -0.092484 5.096797 -54
(DevName,SN,channel,a,b,RssOffset)= cam023 A0000000096 2 -0.092484 5.096797 -54
